{"activities":[{"_id":"699ee73bb87698aeffbaaeb3","type":"deal_created","description":"Nuevo Deal: Bagels & Bagels (USD 1000)","createdAt":"2026-02-25T12:12:43.582Z","company":{"_id":"699ee73bb87698aeffbaaeb0","name":"Bagels & Bagels"},"source":"deal"},{"_id":"699ee73bb87698aeffbaaeb0","type":"company_created","description":"Nueva Empresa: Bagels & Bagels","createdAt":"2026-02-25T12:12:43.468Z","source":"company"},{"_id":"699ee671b87698aeffbaae31","type":"task_created","description":"Tarea: Coordinar reunion (pending)","createdAt":"2026-02-25T12:09:21.232Z","contact":{"_id":"699ee609b87698aeffbaad0f","fullName":"Santiago Copani"},"company":{"_id":"699ee52cb87698aeffbaac9a","name":"Copani"},"source":"task"},{"_id":"699ee52db87698aeffbaac9d","type":"deal_created","description":"Nuevo Deal: Copani (USD 1050)","createdAt":"2026-02-25T12:03:57.103Z","company":{"_id":"699ee52cb87698aeffbaac9a","name":"Copani"},"source":"deal"},{"_id":"699ee52cb87698aeffbaac9a","type":"company_created","description":"Nueva Empresa: Copani","createdAt":"2026-02-25T12:03:57.000Z","source":"company"},{"_id":"699ee481b87698aeffbaab6c","type":"task_created","description":"Tarea: Coordinar reunion (pending)","createdAt":"2026-02-25T12:01:05.217Z","contact":{"_id":"699ee45eb87698aeffbaab24","fullName":"Gonzalo"},"company":{"_id":"699e3b2d7eaa986f49baf25d","name":"Big John"},"source":"task"},{"_id":"699ee3d3b87698aeffbaaa05","type":"task_created","description":"Tarea: Coordinar reunion (pending)","createdAt":"2026-02-25T11:58:11.270Z","contact":{"_id":"699ee393b87698aeffbaa981","fullName":"Francisco Langieri Bullrich"},"company":{"_id":"699ee309b87698aeffbaa933","name":"Tostado Club"},"source":"task"},{"_id":"699ee309b87698aeffbaa936","type":"deal_created","description":"Nuevo Deal: Tostado Club (USD 3300)","createdAt":"2026-02-25T11:54:49.617Z","company":{"_id":"699ee309b87698aeffbaa933","name":"Tostado Club"},"source":"deal"},{"_id":"699ee309b87698aeffbaa933","type":"company_created","description":"Nueva Empresa: Tostado Club","createdAt":"2026-02-25T11:54:49.506Z","source":"company"},{"_id":"699ee2beb87698aeffbaa90e","type":"task_created","description":"Tarea: Hablar para que me pase el numero de Marketing (pending)","createdAt":"2026-02-25T11:53:34.477Z","contact":{"_id":"699e56dbb87698aeffba9b58","fullName":"Hernando Lagos"},"company":{"_id":"699e5681b87698aeffba9ab6","name":"Pibä"},"source":"task"}],"total":34,"page":1,"pages":4}