{"activities":[{"_id":"699ee84bb87698aeffbab097","type":"task_created","description":"Tarea: Coordinar reunion (pending)","createdAt":"2026-02-25T12:17:15.852Z","contact":{"_id":"699ee79fb87698aeffbaaf4e","fullName":"Gaston Vila"},"company":{"_id":"699ee73bb87698aeffbaaeb0","name":"Bagels & Bagels"},"createdBy":{"_id":"699d9386d93cc1dc427f6f03","name":"Alan Naim Tapia","profilePhotoUrl":"https://media.licdn.com/dms/image/v2/D4D03AQGadD7YPYskow/profile-displayphoto-shrink_200_200/B4DZRBLc52HUAY-/0/1736260309257?e=2147483647&v=beta&t=Vy6TZ4NNhDbFshHGLU1N0XQ8wJyi5MIQsz9tr0RhVyI"},"source":"task"}],"total":4,"page":1,"pages":4}